{
  "retailer": "laredoute",
  "crawl": "",
  "btfpos": "",
  "products" : [],
  "name": "slider",
  "format": "BA",
  "creaid": "",
  "live": true,
  "devPath": "//localhost:8080/dist/",
  "livePath": "",
  "logo_img": "",
  "claim_text_color": "",
  "cta_text":"",
  "cta_target": "",
  "cta_border_color": "",
  "cta_bg_color": "",
  "cta_text_color": "",
  "custom": [],
  "prod_img_01": "",
  "prod_img_02": "",
  "prod_img_03": "",
  "prod_img_04": "",
  "prod_img_05": ""
}
